package lv.rtu.cna

import java.util.Date
import java.text.SimpleDateFormat
import java.text.DateFormat
import lv.rtu.cna.beans.RankedInstanceData
import lv.rtu.cna.beans.RankedInstance

function Boolean todayIsBetween(String lower, String upper) {
    DateFormat dateFormat = new SimpleDateFormat("dd.MM.yyyy");
    DateFormat yearDateFormat = new SimpleDateFormat("yyyy");
    String currYear = yearDateFormat.format(new Date());
    Date lowerDate = dateFormat.parse(lower + "." + currYear);
    Date upperDate = dateFormat.parse(upper + "." + currYear);
    return lowerDate.before(new Date()) && upperDate.after(new Date());
}
function Boolean isToday(String input) {
    DateFormat dateFormat = new SimpleDateFormat("dd.MM.yyyy");
    DateFormat yearDateFormat = new SimpleDateFormat("yyyy");
    String currYear = yearDateFormat.format(new Date());
    String comparingWith = input + "." + currYear;
    String currDate = dateFormat.format(new Date());
    return currDate.equalsIgnoreCase(comparingWith);
}

rule Promote_15
salience 7
  ruleflow-group "promotionrules"
  dialect "java"
  when
      RankedInstanceData : RankedInstanceData($rankedInstances : rankedInstances)
      instance : RankedInstance() from $rankedInstances

      eval(todayIsBetween("12.07", "19.07"))
      eval(instance.getServiceId()== 15)
  then
        instance.setForcePromoted(true);
end

rule Promote_39
salience 6
  ruleflow-group "promotionrules"
  dialect "java"
  when
      RankedInstanceData : RankedInstanceData($rankedInstances : rankedInstances)
      instance : RankedInstance() from $rankedInstances

      eval(todayIsBetween("01.03", "31.03"))
      eval(instance.getServiceId() == 39)
  then
        instance.setForcePromoted(true);
end

rule Promote_69
salience 5
  ruleflow-group "promotionrules"
  dialect "java"
  when
      RankedInstanceData : RankedInstanceData($rankedInstances : rankedInstances)
      instance : RankedInstance() from $rankedInstances

      eval(todayIsBetween("20.06", "30.06"))
      eval(instance.getServiceId() == 69)
  then
        instance.setForcePromoted(true);
end

rule Promote_26
salience 4
  ruleflow-group "promotionrules"
  dialect "java"
  when
      RankedInstanceData : RankedInstanceData($rankedInstances : rankedInstances)
      instance : RankedInstance() from $rankedInstances

      eval(todayIsBetween("10.01", "15.02"))
      eval(instance.getServiceId() == 26)
  then
        instance.setForcePromoted(true);
end

rule Promote_13
salience 3
  ruleflow-group "promotionrules"
  dialect "java"
  when
      RankedInstanceData : RankedInstanceData($rankedInstances : rankedInstances)
      instance : RankedInstance() from $rankedInstances

      eval(todayIsBetween("01.09", "30.09"))
      eval(instance.getServiceId() == 13)
  then
        instance.setForcePromoted(true);
end

rule Promote_34
salience 2
  ruleflow-group "promotionrules"
  dialect "java"
  when
      RankedInstanceData : RankedInstanceData($rankedInstances : rankedInstances)
      instance : RankedInstance() from $rankedInstances

      eval(todayIsBetween("10.01", "15.02"))
      eval(instance.getServiceId() == 34)
  then
        instance.setForcePromoted(true);
end

rule Promote_49
salience 1
  ruleflow-group "promotionrules"
  dialect "java"
  when
      RankedInstanceData : RankedInstanceData($rankedInstances : rankedInstances)
      instance : RankedInstance() from $rankedInstances

      eval(todayIsBetween("01.03", "15.03"))
      eval(instance.getServiceId() == 49)
  then
        instance.setForcePromoted(true);
end